{
  "id": 2298630,
  "title": "Lozano's eerste succesjaar bij PSV: 17 goals, 11 assists, 1 landstitel",
  "description": "Een greep uit het eerste seizoen van de Mexicaanse aanvaller in Eindhovense dienst. Hij is belangrijk in het veroveren van de landstitel in 2017/2018.",
  "geoprotection": true,
  "pre_roll": "https://pubads.g.doubleclick.net/gampad/ads?sz=720x404&iu=/9233/npoplayer.nl/nossportvoetbal&ciu_szs&impl=s&gdfp_req=1&env=vp&output=xml_vast2&unviewed_position_start=1&url=[referrer_url]&description_url=[description_url]&correlator=[timestamp]&ad_rule=1&cust_params=omroep%3Dnos%26genre%3Dsport%26dur%3D94%26afleveringstitel%3Dlozanoseerstesuccesjaarbijpsvgoalsassistslandstitel",
  "pre_rolls": {
    "consent": "https://pubads.g.doubleclick.net/gampad/ads?sz=720x404&iu=/9233/npoplayer.nl/nossportvoetbal&ciu_szs&impl=s&gdfp_req=1&env=vp&output=xml_vast2&unviewed_position_start=1&url=[referrer_url]&description_url=[description_url]&correlator=[timestamp]&ad_rule=1&cust_params=omroep%3Dnos%26genre%3Dsport%26dur%3D94%26afleveringstitel%3Dlozanoseerstesuccesjaarbijpsvgoalsassistslandstitel",
    "no_consent": "https://sterdfpproxy.ster.nl/gampad/ads?sz=720x404&iu=/9233/npoplayer.nl/nossportvoetbal&ciu_szs&impl=s&gdfp_req=1&env=vp&output=xml_vast2&unviewed_position_start=1&url=[referrer_url]&description_url=[description_url]&correlator=[timestamp]&ad_rule=1&cust_params=omroep%3Dnos%26genre%3Dsport%26dur%3D94%26afleveringstitel%3Dlozanoseerstesuccesjaarbijpsvgoalsassistslandstitel",
    "ad_config": "https://adconfig.ster.nl/adurl/[identifier]?ncc=[noCommercialCookies]&cust_params=omroep%3Dnos%26genre%3Dsport%26video_duur%3D94%26afleverings_titel%3Dlozanoseerstesuccesjaarbijpsvgoalsassistslandstitel%26programma_titel%3Dsport"
  },
  "formats": [
    {
      "width": 1280,
      "height": 720,
      "name": "720p",
      "label": "HD - 720p",
      "mimetype": "application/vnd.apple.mpegurl",
      "url": {
        "mp4": "https://ipv4-api.nos.nl/resolve.php/adaptive?url=%2Fcontent-ip%2Fvideo%2F2019%2F08%2F13%2F242900-7af9ed29d80ecd72a230fb2384882fc0%2F242900-7af9ed29d80ecd72a230fb2384882fc0.ism%2F242900-7af9ed29d80ecd72a230fb2384882fc0.m3u8"
      }
    },
    {
      "width": 960,
      "height": 540,
      "name": "540p",
      "label": "Hoog - 540p",
      "mimetype": "application/vnd.apple.mpegurl",
      "url": {
        "mp4": "https://ipv4-api.nos.nl/resolve.php/adaptive?url=%2Fcontent-ip%2Fvideo%2F2019%2F08%2F13%2F242900-7af9ed29d80ecd72a230fb2384882fc0%2F242900-7af9ed29d80ecd72a230fb2384882fc0.ism%2F242900-7af9ed29d80ecd72a230fb2384882fc0.m3u8"
      }
    },
    {
      "width": 848,
      "height": 480,
      "name": "480p",
      "label": "Normaal - 480p",
      "mimetype": "application/vnd.apple.mpegurl",
      "url": {
        "mp4": "https://ipv4-api.nos.nl/resolve.php/adaptive?url=%2Fcontent-ip%2Fvideo%2F2019%2F08%2F13%2F242900-7af9ed29d80ecd72a230fb2384882fc0%2F242900-7af9ed29d80ecd72a230fb2384882fc0.ism%2F242900-7af9ed29d80ecd72a230fb2384882fc0.m3u8"
      }
    },
    {
      "width": 640,
      "height": 360,
      "name": "360p",
      "label": "Laag - 360p",
      "mimetype": "application/vnd.apple.mpegurl",
      "url": {
        "mp4": "https://ipv4-api.nos.nl/resolve.php/adaptive?url=%2Fcontent-ip%2Fvideo%2F2019%2F08%2F13%2F242900-7af9ed29d80ecd72a230fb2384882fc0%2F242900-7af9ed29d80ecd72a230fb2384882fc0.ism%2F242900-7af9ed29d80ecd72a230fb2384882fc0.m3u8"
      }
    }
  ],
  "image": {
    "copyright": "Pro Shots",
    "formats": [
      {
        "width": 128,
        "height": 72,
        "url": {
          "jpg": "https://nos.nl/data/image/2019/08/23/571947/128x72.jpg"
        }
      },
      {
        "width": 250,
        "height": 141,
        "url": {
          "jpg": "https://nos.nl/data/image/2019/08/23/571947/s.jpg"
        }
      },
      {
        "width": 320,
        "height": 180,
        "url": {
          "jpg": "https://nos.nl/data/image/2019/08/23/571947/320x180.jpg"
        }
      },
      {
        "width": 480,
        "height": 270,
        "url": {
          "jpg": "https://nos.nl/data/image/2019/08/23/571947/480x270.jpg"
        }
      },
      {
        "width": 640,
        "height": 360,
        "url": {
          "jpg": "https://nos.nl/data/image/2019/08/23/571947/640x360.jpg"
        }
      },
      {
        "width": 800,
        "height": 450,
        "url": {
          "jpg": "https://nos.nl/data/image/2019/08/23/571947/xxl.jpg"
        }
      },
      {
        "width": 1008,
        "height": 567,
        "url": {
          "jpg": "https://nos.nl/data/image/2019/08/23/571947/1008x567.jpg"
        }
      },
      {
        "width": 1200,
        "height": 675,
        "url": {
          "jpg": "https://nos.nl/data/image/2019/08/23/571947/1200x675.jpg"
        }
      },
      {
        "width": 1600,
        "height": 900,
        "url": {
          "jpg": "https://nos.nl/data/image/2019/08/23/571947/1600x900.jpg"
        }
      },
      {
        "width": 2048,
        "height": 1152,
        "url": {
          "jpg": "https://nos.nl/data/image/2019/08/23/571947/2048x1152.jpg"
        }
      }
    ],
    "aspect_ratios": [
      {
        "ratio": "16:9",
        "formats": [
          {
            "width": 128,
            "height": 72,
            "url": {
              "jpg": "https://nos.nl/data/image/2019/08/23/571947/128x72a.jpg"
            }
          },
          {
            "width": 256,
            "height": 144,
            "url": {
              "jpg": "https://nos.nl/data/image/2019/08/23/571947/256x144a.jpg"
            }
          },
          {
            "width": 384,
            "height": 216,
            "url": {
              "jpg": "https://nos.nl/data/image/2019/08/23/571947/384x216a.jpg"
            }
          },
          {
            "width": 512,
            "height": 288,
            "url": {
              "jpg": "https://nos.nl/data/image/2019/08/23/571947/512x288a.jpg"
            }
          },
          {
            "width": 640,
            "height": 360,
            "url": {
              "jpg": "https://nos.nl/data/image/2019/08/23/571947/640x360a.jpg"
            }
          },
          {
            "width": 768,
            "height": 432,
            "url": {
              "jpg": "https://nos.nl/data/image/2019/08/23/571947/768x432a.jpg"
            }
          },
          {
            "width": 1024,
            "height": 576,
            "url": {
              "jpg": "https://nos.nl/data/image/2019/08/23/571947/1024x576a.jpg"
            }
          },
          {
            "width": 1280,
            "height": 720,
            "url": {
              "jpg": "https://nos.nl/data/image/2019/08/23/571947/1280x720a.jpg"
            }
          },
          {
            "width": 1536,
            "height": 864,
            "url": {
              "jpg": "https://nos.nl/data/image/2019/08/23/571947/1536x864a.jpg"
            }
          },
          {
            "width": 1920,
            "height": 1080,
            "url": {
              "jpg": "https://nos.nl/data/image/2019/08/23/571947/1920x1080a.jpg"
            }
          },
          {
            "width": 2560,
            "height": 1440,
            "url": {
              "jpg": "https://nos.nl/data/image/2019/08/23/571947/2560x1440a.jpg"
            }
          },
          {
            "width": 3200,
            "height": 1800,
            "url": {
              "jpg": "https://nos.nl/data/image/2019/08/23/571947/3200x1800a.jpg"
            }
          },
          {
            "width": 3840,
            "height": 2160,
            "url": {
              "jpg": "https://nos.nl/data/image/2019/08/23/571947/3840x2160a.jpg"
            }
          }
        ]
      }
    ]
  },
  "published_at": "2019-08-13T20:06:07+0200",
  "duration": 94,
  "related": [
    {
      "id": 2298631,
      "external_id": "INOS-9687994",
      "type": "liveblog",
      "title": "Warming-up: Torres bezig aan afscheidsduel",
      "description": "In de Warming-up tellen we af naar de vierde speelronde van de eredivisie en volgen we al het andere voetbalnieuws in Nederland en over de grenzen.",
      "image": {
        "copyright": "AFP",
        "formats": [
          {
            "width": 128,
            "height": 72,
            "url": {
              "jpg": "https://nos.nl/data/image/2019/08/23/571976/128x72.jpg"
            }
          },
          {
            "width": 250,
            "height": 141,
            "url": {
              "jpg": "https://nos.nl/data/image/2019/08/23/571976/s.jpg"
            }
          },
          {
            "width": 320,
            "height": 180,
            "url": {
              "jpg": "https://nos.nl/data/image/2019/08/23/571976/320x180.jpg"
            }
          },
          {
            "width": 480,
            "height": 270,
            "url": {
              "jpg": "https://nos.nl/data/image/2019/08/23/571976/480x270.jpg"
            }
          },
          {
            "width": 640,
            "height": 360,
            "url": {
              "jpg": "https://nos.nl/data/image/2019/08/23/571976/640x360.jpg"
            }
          },
          {
            "width": 800,
            "height": 450,
            "url": {
              "jpg": "https://nos.nl/data/image/2019/08/23/571976/xxl.jpg"
            }
          },
          {
            "width": 1008,
            "height": 567,
            "url": {
              "jpg": "https://nos.nl/data/image/2019/08/23/571976/1008x567.jpg"
            }
          },
          {
            "width": 1200,
            "height": 675,
            "url": {
              "jpg": "https://nos.nl/data/image/2019/08/23/571976/1200x675.jpg"
            }
          },
          {
            "width": 1600,
            "height": 900,
            "url": {
              "jpg": "https://nos.nl/data/image/2019/08/23/571976/1600x900.jpg"
            }
          },
          {
            "width": 2048,
            "height": 1152,
            "url": {
              "jpg": "https://nos.nl/data/image/2019/08/23/571976/2048x1152.jpg"
            }
          }
        ],
        "aspect_ratios": [
          {
            "ratio": "4:3",
            "formats": [
              {
                "width": 96,
                "height": 72,
                "url": {
                  "jpg": "https://nos.nl/data/image/2019/08/23/571976/96x72a.jpg"
                }
              },
              {
                "width": 192,
                "height": 144,
                "url": {
                  "jpg": "https://nos.nl/data/image/2019/08/23/571976/192x144a.jpg"
                }
              },
              {
                "width": 288,
                "height": 216,
                "url": {
                  "jpg": "https://nos.nl/data/image/2019/08/23/571976/288x216a.jpg"
                }
              },
              {
                "width": 384,
                "height": 288,
                "url": {
                  "jpg": "https://nos.nl/data/image/2019/08/23/571976/384x288a.jpg"
                }
              },
              {
                "width": 480,
                "height": 360,
                "url": {
                  "jpg": "https://nos.nl/data/image/2019/08/23/571976/480x360a.jpg"
                }
              },
              {
                "width": 576,
                "height": 432,
                "url": {
                  "jpg": "https://nos.nl/data/image/2019/08/23/571976/576x432a.jpg"
                }
              },
              {
                "width": 768,
                "height": 576,
                "url": {
                  "jpg": "https://nos.nl/data/image/2019/08/23/571976/768x576a.jpg"
                }
              },
              {
                "width": 960,
                "height": 720,
                "url": {
                  "jpg": "https://nos.nl/data/image/2019/08/23/571976/960x720a.jpg"
                }
              },
              {
                "width": 1152,
                "height": 864,
                "url": {
                  "jpg": "https://nos.nl/data/image/2019/08/23/571976/1152x864a.jpg"
                }
              },
              {
                "width": 1440,
                "height": 1080,
                "url": {
                  "jpg": "https://nos.nl/data/image/2019/08/23/571976/1440x1080a.jpg"
                }
              },
              {
                "width": 1920,
                "height": 1440,
                "url": {
                  "jpg": "https://nos.nl/data/image/2019/08/23/571976/1920x1440a.jpg"
                }
              },
              {
                "width": 2400,
                "height": 1800,
                "url": {
                  "jpg": "https://nos.nl/data/image/2019/08/23/571976/2400x1800a.jpg"
                }
              },
              {
                "width": 2880,
                "height": 2160,
                "url": {
                  "jpg": "https://nos.nl/data/image/2019/08/23/571976/2880x2160a.jpg"
                }
              }
            ]
          },
          {
            "ratio": "16:9",
            "formats": [
              {
                "width": 128,
                "height": 72,
                "url": {
                  "jpg": "https://nos.nl/data/image/2019/08/23/571976/128x72a.jpg"
                }
              },
              {
                "width": 256,
                "height": 144,
                "url": {
                  "jpg": "https://nos.nl/data/image/2019/08/23/571976/256x144a.jpg"
                }
              },
              {
                "width": 384,
                "height": 216,
                "url": {
                  "jpg": "https://nos.nl/data/image/2019/08/23/571976/384x216a.jpg"
                }
              },
              {
                "width": 512,
                "height": 288,
                "url": {
                  "jpg": "https://nos.nl/data/image/2019/08/23/571976/512x288a.jpg"
                }
              },
              {
                "width": 640,
                "height": 360,
                "url": {
                  "jpg": "https://nos.nl/data/image/2019/08/23/571976/640x360a.jpg"
                }
              },
              {
                "width": 768,
                "height": 432,
                "url": {
                  "jpg": "https://nos.nl/data/image/2019/08/23/571976/768x432a.jpg"
                }
              },
              {
                "width": 1024,
                "height": 576,
                "url": {
                  "jpg": "https://nos.nl/data/image/2019/08/23/571976/1024x576a.jpg"
                }
              },
              {
                "width": 1280,
                "height": 720,
                "url": {
                  "jpg": "https://nos.nl/data/image/2019/08/23/571976/1280x720a.jpg"
                }
              },
              {
                "width": 1536,
                "height": 864,
                "url": {
                  "jpg": "https://nos.nl/data/image/2019/08/23/571976/1536x864a.jpg"
                }
              },
              {
                "width": 1920,
                "height": 1080,
                "url": {
                  "jpg": "https://nos.nl/data/image/2019/08/23/571976/1920x1080a.jpg"
                }
              },
              {
                "width": 2560,
                "height": 1440,
                "url": {
                  "jpg": "https://nos.nl/data/image/2019/08/23/571976/2560x1440a.jpg"
                }
              },
              {
                "width": 3200,
                "height": 1800,
                "url": {
                  "jpg": "https://nos.nl/data/image/2019/08/23/571976/3200x1800a.jpg"
                }
              },
              {
                "width": 3840,
                "height": 2160,
                "url": {
                  "jpg": "https://nos.nl/data/image/2019/08/23/571976/3840x2160a.jpg"
                }
              }
            ]
          }
        ]
      },
      "owner": "sport",
      "published_at": "2019-08-23T13:56:25+0200",
      "modified_at": "2019-08-23T13:56:27+0200",
      "item_at": "2019-08-23T00:00:00+0200",
      "categories": [
        {
          "name": "voetbal",
          "label": "Voetbal",
          "main_category": "sport"
        }
      ],
      "collections": [],
      "keywords": [
        {
          "name": "liveblog",
          "label": "liveblog"
        },
        {
          "name": "eredivisie-231",
          "label": "eredivisie"
        },
        {
          "name": "feyenoord",
          "label": "Feyenoord"
        },
        {
          "name": "ajax",
          "label": "Ajax"
        },
        {
          "name": "psv-1",
          "label": "PSV"
        }
      ],
      "has_video": true,
      "has_audio": false,
      "has_photos": true,
      "status": "open"
    },
    {
      "id": 2298633,
      "external_id": "INOS-9632254",
      "type": "article",
      "title": "PSV laat Lozano voor recordbedrag naar Napoli vertrekken",
      "description": "De Eindhovenaren strijken naar verluidt 40 miljoen euro op voor de 24-jarige Mexicaan, die nog een contract tot medio 2023 had.",
      "image": {
        "copyright": "ANP",
        "formats": [
          {
            "width": 128,
            "height": 72,
            "url": {
              "jpg": "https://nos.nl/data/image/2019/08/23/571950/128x72.jpg"
            }
          },
          {
            "width": 250,
            "height": 141,
            "url": {
              "jpg": "https://nos.nl/data/image/2019/08/23/571950/s.jpg"
            }
          },
          {
            "width": 320,
            "height": 180,
            "url": {
              "jpg": "https://nos.nl/data/image/2019/08/23/571950/320x180.jpg"
            }
          },
          {
            "width": 480,
            "height": 270,
            "url": {
              "jpg": "https://nos.nl/data/image/2019/08/23/571950/480x270.jpg"
            }
          },
          {
            "width": 640,
            "height": 360,
            "url": {
              "jpg": "https://nos.nl/data/image/2019/08/23/571950/640x360.jpg"
            }
          },
          {
            "width": 800,
            "height": 450,
            "url": {
              "jpg": "https://nos.nl/data/image/2019/08/23/571950/xxl.jpg"
            }
          },
          {
            "width": 1008,
            "height": 567,
            "url": {
              "jpg": "https://nos.nl/data/image/2019/08/23/571950/1008x567.jpg"
            }
          },
          {
            "width": 1200,
            "height": 675,
            "url": {
              "jpg": "https://nos.nl/data/image/2019/08/23/571950/1200x675.jpg"
            }
          },
          {
            "width": 1600,
            "height": 900,
            "url": {
              "jpg": "https://nos.nl/data/image/2019/08/23/571950/1600x900.jpg"
            }
          },
          {
            "width": 2048,
            "height": 1152,
            "url": {
              "jpg": "https://nos.nl/data/image/2019/08/23/571950/2048x1152.jpg"
            }
          }
        ],
        "aspect_ratios": [
          {
            "ratio": "16:9",
            "formats": [
              {
                "width": 128,
                "height": 72,
                "url": {
                  "jpg": "https://nos.nl/data/image/2019/08/23/571950/128x72a.jpg"
                }
              },
              {
                "width": 256,
                "height": 144,
                "url": {
                  "jpg": "https://nos.nl/data/image/2019/08/23/571950/256x144a.jpg"
                }
              },
              {
                "width": 384,
                "height": 216,
                "url": {
                  "jpg": "https://nos.nl/data/image/2019/08/23/571950/384x216a.jpg"
                }
              },
              {
                "width": 512,
                "height": 288,
                "url": {
                  "jpg": "https://nos.nl/data/image/2019/08/23/571950/512x288a.jpg"
                }
              },
              {
                "width": 640,
                "height": 360,
                "url": {
                  "jpg": "https://nos.nl/data/image/2019/08/23/571950/640x360a.jpg"
                }
              },
              {
                "width": 768,
                "height": 432,
                "url": {
                  "jpg": "https://nos.nl/data/image/2019/08/23/571950/768x432a.jpg"
                }
              },
              {
                "width": 1024,
                "height": 576,
                "url": {
                  "jpg": "https://nos.nl/data/image/2019/08/23/571950/1024x576a.jpg"
                }
              },
              {
                "width": 1280,
                "height": 720,
                "url": {
                  "jpg": "https://nos.nl/data/image/2019/08/23/571950/1280x720a.jpg"
                }
              },
              {
                "width": 1536,
                "height": 864,
                "url": {
                  "jpg": "https://nos.nl/data/image/2019/08/23/571950/1536x864a.jpg"
                }
              },
              {
                "width": 1920,
                "height": 1080,
                "url": {
                  "jpg": "https://nos.nl/data/image/2019/08/23/571950/1920x1080a.jpg"
                }
              },
              {
                "width": 2560,
                "height": 1440,
                "url": {
                  "jpg": "https://nos.nl/data/image/2019/08/23/571950/2560x1440a.jpg"
                }
              },
              {
                "width": 3200,
                "height": 1800,
                "url": {
                  "jpg": "https://nos.nl/data/image/2019/08/23/571950/3200x1800a.jpg"
                }
              },
              {
                "width": 3840,
                "height": 2160,
                "url": {
                  "jpg": "https://nos.nl/data/image/2019/08/23/571950/3840x2160a.jpg"
                }
              }
            ]
          }
        ]
      },
      "owner": "sport",
      "published_at": "2019-08-23T11:07:09+0200",
      "modified_at": "2019-08-23T11:07:09+0200",
      "item_at": "2019-08-23T00:00:00+0200",
      "categories": [
        {
          "name": "voetbal",
          "label": "Voetbal",
          "main_category": "sport"
        }
      ],
      "collections": [],
      "keywords": [
        {
          "name": "napoli",
          "label": "Napoli"
        },
        {
          "name": "psv-1",
          "label": "PSV"
        },
        {
          "name": "hirving-lozano-7",
          "label": "Hirving Lozano"
        }
      ],
      "has_video": true,
      "has_audio": false,
      "has_photos": true
    }
  ]
}
